[
    {
        "image": {
            "annotations": [],
            "avg_lightness": 17,
            "filename": "001.jpg"
        }
    },
    {
        "image": {
            "annotations": [
                {
                    "shape": "Circle",
                    "radius": 130,
                    "center": [
                        323,
                        241
                    ]
                }
            ],
            "avg_lightness": 48,
            "filename": "002.jpg"
        }
    },
    {
        "image": {
            "annotations": [
                {
                    "shape": "Circle",
                    "radius": 125,
                    "center": [
                        323,
                        241
                    ]
                }
            ],
            "avg_lightness": 78,
            "filename": "003.jpg"
        }
    },
    {
        "image": {
            "annotations": [
                {
                    "shape": "Circle",
                    "radius": 131,
                    "center": [
                        323,
                        237
                    ]
                }
            ],
            "avg_lightness": 109,
            "filename": "004.jpg"
        }
    },
    {
        "image": {
            "annotations": [
                {
                    "shape": "Circle",
                    "radius": 133,
                    "center": [
                        321,
                        239
                    ]
                }
            ],
            "avg_lightness": 138,
            "filename": "005.jpg"
        }
    },
    {
        "image": {
            "annotations": [],
            "avg_lightness": 17,
            "filename": "006.jpg"
        }
    },
    {
        "image": {
            "annotations": [
                {
                    "shape": "Circle",
                    "radius": 123,
                    "center": [
                        497,
                        237
                    ]
                }
            ],
            "avg_lightness": 48,
            "filename": "007.jpg"
        }
    },
    {
        "image": {
            "annotations": [
                {
                    "shape": "Circle",
                    "radius": 129,
                    "center": [
                        499,
                        237
                    ]
                }
            ],
            "avg_lightness": 77,
            "filename": "008.jpg"
        }
    },
    {
        "image": {
            "annotations": [
                {
                    "shape": "Circle",
                    "radius": 125,
                    "center": [
                        499,
                        241
                    ]
                }
            ],
            "avg_lightness": 111,
            "filename": "009.jpg"
        }
    },
    {
        "image": {
            "annotations": [
                {
                    "shape": "Circle",
                    "radius": 133,
                    "center": [
                        501,
                        239
                    ]
                }
            ],
            "avg_lightness": 139,
            "filename": "010.jpg"
        }
    },
    {
        "image": {
            "annotations": [],
            "avg_lightness": 17,
            "filename": "011.jpg"
        }
    },
    {
        "image": {
            "annotations": [],
            "avg_lightness": 38,
            "filename": "012.jpg"
        }
    },
    {
        "image": {
            "annotations": [
                {
                    "shape": "Circle",
                    "radius": 133,
                    "center": [
                        505,
                        129
                    ]
                }
            ],
            "avg_lightness": 78,
            "filename": "013.jpg"
        }
    },
    {
        "image": {
            "annotations": [
                {
                    "shape": "Circle",
                    "radius": 129,
                    "center": [
                        507,
                        131
                    ]
                }
            ],
            "avg_lightness": 108,
            "filename": "014.jpg"
        }
    },
    {
        "image": {
            "annotations": [
                {
                    "shape": "Circle",
                    "radius": 129,
                    "center": [
                        501,
                        127
                    ]
                }
            ],
            "avg_lightness": 137,
            "filename": "015.jpg"
        }
    },
    {
        "image": {
            "annotations": [],
            "avg_lightness": 18,
            "filename": "016.jpg"
        }
    },
    {
        "image": {
            "annotations": [],
            "avg_lightness": 48,
            "filename": "017.jpg"
        }
    },
    {
        "image": {
            "annotations": [],
            "avg_lightness": 78,
            "filename": "018.jpg"
        }
    },
    {
        "image": {
            "annotations": [],
            "avg_lightness": 108,
            "filename": "019.jpg"
        }
    },
    {
        "image": {
            "annotations": [],
            "avg_lightness": 138,
            "filename": "020.jpg"
        }
    },
    {
        "image": {
            "annotations": [],
            "avg_lightness": 18,
            "filename": "021.jpg"
        }
    },
    {
        "image": {
            "annotations": [],
            "avg_lightness": 48,
            "filename": "022.jpg"
        }
    },
    {
        "image": {
            "annotations": [],
            "avg_lightness": 78,
            "filename": "023.jpg"
        }
    },
    {
        "image": {
            "annotations": [],
            "avg_lightness": 108,
            "filename": "024.jpg"
        }
    },
    {
        "image": {
            "annotations": [],
            "avg_lightness": 138,
            "filename": "025.jpg"
        }
    },
    {
        "image": {
            "annotations": [],
            "avg_lightness": 18,
            "filename": "026.jpg"
        }
    },
    {
        "image": {
            "annotations": [],
            "avg_lightness": 48,
            "filename": "027.jpg"
        }
    },
    {
        "image": {
            "annotations": [],
            "avg_lightness": 78,
            "filename": "028.jpg"
        }
    },
    {
        "image": {
            "annotations": [],
            "avg_lightness": 108,
            "filename": "029.jpg"
        }
    },
    {
        "image": {
            "annotations": [],
            "avg_lightness": 138,
            "filename": "030.jpg"
        }
    },
    {
        "image": {
            "annotations": [],
            "avg_lightness": 18,
            "filename": "031.jpg"
        }
    },
    {
        "image": {
            "annotations": [],
            "avg_lightness": 48,
            "filename": "032.jpg"
        }
    },
    {
        "image": {
            "annotations": [],
            "avg_lightness": 78,
            "filename": "033.jpg"
        }
    },
    {
        "image": {
            "annotations": [],
            "avg_lightness": 108,
            "filename": "034.jpg"
        }
    },
    {
        "image": {
            "annotations": [],
            "avg_lightness": 138,
            "filename": "035.jpg"
        }
    },
    {
        "image": {
            "annotations": [],
            "avg_lightness": 18,
            "filename": "036.jpg"
        }
    },
    {
        "image": {
            "annotations": [],
            "avg_lightness": 47,
            "filename": "037.jpg"
        }
    },
    {
        "image": {
            "annotations": [],
            "avg_lightness": 78,
            "filename": "038.jpg"
        }
    },
    {
        "image": {
            "annotations": [],
            "avg_lightness": 108,
            "filename": "039.jpg"
        }
    },
    {
        "image": {
            "annotations": [],
            "avg_lightness": 138,
            "filename": "040.jpg"
        }
    },
    {
        "image": {
            "annotations": [],
            "avg_lightness": 18,
            "filename": "041.jpg"
        }
    },
    {
        "image": {
            "annotations": [],
            "avg_lightness": 48,
            "filename": "042.jpg"
        }
    },
    {
        "image": {
            "annotations": [],
            "avg_lightness": 78,
            "filename": "043.jpg"
        }
    },
    {
        "image": {
            "annotations": [],
            "avg_lightness": 108,
            "filename": "044.jpg"
        }
    },
    {
        "image": {
            "annotations": [],
            "avg_lightness": 138,
            "filename": "045.jpg"
        }
    },
    {
        "image": {
            "annotations": [],
            "avg_lightness": 17,
            "filename": "046.jpg"
        }
    },
    {
        "image": {
            "annotations": [],
            "avg_lightness": 47,
            "filename": "047.jpg"
        }
    },
    {
        "image": {
            "annotations": [],
            "avg_lightness": 77,
            "filename": "048.jpg"
        }
    },
    {
        "image": {
            "annotations": [],
            "avg_lightness": 108,
            "filename": "049.jpg"
        }
    },
    {
        "image": {
            "annotations": [],
            "avg_lightness": 138,
            "filename": "050.jpg"
        }
    },
    {
        "image": {
            "annotations": [],
            "avg_lightness": 17,
            "filename": "051.jpg"
        }
    },
    {
        "image": {
            "annotations": [],
            "avg_lightness": 48,
            "filename": "052.jpg"
        }
    },
    {
        "image": {
            "annotations": [],
            "avg_lightness": 77,
            "filename": "053.jpg"
        }
    },
    {
        "image": {
            "annotations": [],
            "avg_lightness": 109,
            "filename": "054.jpg"
        }
    },
    {
        "image": {
            "annotations": [],
            "avg_lightness": 139,
            "filename": "055.jpg"
        }
    },
    {
        "image": {
            "annotations": [],
            "avg_lightness": 18,
            "filename": "056.jpg"
        }
    },
    {
        "image": {
            "annotations": [],
            "avg_lightness": 47,
            "filename": "057.jpg"
        }
    },
    {
        "image": {
            "annotations": [],
            "avg_lightness": 78,
            "filename": "058.jpg"
        }
    },
    {
        "image": {
            "annotations": [],
            "avg_lightness": 108,
            "filename": "059.jpg"
        }
    },
    {
        "image": {
            "annotations": [],
            "avg_lightness": 138,
            "filename": "060.jpg"
        }
    }
]
